state=
{
	id=118
	name="STATE_118"
	manpower=21372
	
	state_category = enclave
	history={
		owner = GIZ #Gibraltar International Zone
		add_core_of = GIZ
		victory_points = { 4135 10 }
		buildings = {
			infrastructure = 6
			air_base = 2
			4135 = {
				naval_base = 5
				coastal_bunker = 2
			}
		}
		add_core_of = SPR
	}
	provinces={
		4135 13228
	}
}
