state={
	id=176
	name="STATE_176"

	history={
		owner = SPR
		buildings = {
			infrastructure = 6
			industrial_complex = 1

		}
		victory_points = {
			885 3 
		}
		add_core_of = SPR

	}

	provinces={
		857 884 885 3859 3887 3902 6903 9870 11766 11852 11854  13226 
	}
	manpower=739760
	buildings_max_level_factor=1.000
	state_category=rural
}
