
state={
	id=342
	name="STATE_342" # Antalya
	manpower = 362689
	resources={
		chromium=35 # was: 46
	}
	state_category = rural

	history={
		owner = ITA
		victory_points = {
			1005 1 
		}
		victory_points = {
			9878 1 
		}
		buildings = {
			infrastructure = 3
			industrial_complex = 1
			1005 = {
				naval_base = 4
			}
		}
		add_core_of = TUR
	}

	provinces={
		1005 1119 9941 10122 11917 12013 12016 12096 10041 11907 784 9878 3876 9929 10038 3788 1122
	}
}
