
state={
	id=410
	name="STATE_410"

	history={
		owner = BAL
		buildings = {
			infrastructure = 2

		}
		add_core_of = BAL
		add_core_of = PER

	}

	provinces={
		1889 2039 2070 4891 10782 13082 13234 13235 13237 13238
	}
	manpower=341053
	buildings_max_level_factor=1.000
	state_category=rural
}
