
state={
	id=417
	name="STATE_417" # Hamadan
	manpower = 796396
	state_category = rural

	history={
		owner = PER
		buildings = {
			infrastructure = 3
		}
		add_core_of = PER
	}

	provinces={
		1982 2065 5050 8040 8125 9816 10922 12773 
	}
}
