
state={
	id=421
	name="STATE_421"
	manpower = 780278
	
	state_category = rural

	history={
		owner = KUR
		buildings = {
			infrastructure = 3
		}
		add_core_of = PER
		add_core_of = KUR
	}

	provinces={
		78 829 4943 5098 10774 12855 
	}
}
