state={
	id=61
	name="STATE_61"
	manpower = 836353


	state_category = town

	history={
		owner = GER
		victory_points = {
			321 5
		}
		victory_points = {
			11305 3
		}
		buildings = {
			infrastructure = 6
			arms_factory = 2
			321 = {
				naval_base = 6

			}
			air_base = 3
		}
		add_core_of = GER
		add_core_of = BRN
	}

	provinces={
		268 293 321 9294 11276 11305 
	}
}
