state={
	id=656
	name="STATE_656"
	manpower = 80000
	
	state_category = rural
	
	history={
		add_core_of = KUW
		owner = KUW
		victory_points = {
			8085 3
		}
		buildings = {
			infrastructure = 4
			8085 = {
				naval_base = 4
			}
		}

	}
	provinces={
		8085 13236
	}
}
