
state={
	id=74
	name="STATE_74"

	history={
		owner = CZE
		buildings = {
			infrastructure = 5

		}
		add_core_of = CZE

	}

	provinces={
		421 3414 6485 
	}
	manpower=651324
	buildings_max_level_factor=1.000
	state_category=rural
}
