
state={
	id=80
	name="STATE_80"

	history={
		victory_points = {
			577 1 
		}
		owner = SOV
		buildings = {
			infrastructure = 6
			arms_factory = 1

		}
		add_core_of = ROM
		add_core_of = UKR
		add_core_of = SOV

	}

	provinces={
		577 9548 
	}
	manpower=474600
	buildings_max_level_factor=1.000
	state_category=rural
}
