state={
	id=803
	name="STATE_803"
	history={
		owner = YUG
		set_demilitarized_zone = yes
		buildings = {
			infrastructure = 6

		}
		add_core_of = YUG
		add_core_of = MNT
	}
	provinces={
		937 982 3922 
	}
	manpower=56789
	buildings_max_level_factor=1.000
	state_category= rural
}
