
state={
	id=821
	name="STATE_821"

	history={
		owner = SOV
		victory_points = {
			4825 3 
		}
		buildings = {
			infrastructure = 4

		}
		add_core_of = PER

	}

	provinces={
		1521 5029 7602 10351 13243
	}
	manpower=432754
	buildings_max_level_factor=1.000
	state_category=rural
}
