state={
	id=824
	name="STATE_824"
	history={
		owner = PER
		buildings = {
			infrastructure = 3
		}
		add_core_of = PER
	}
	provinces={
		4473 12434 
	}
	manpower=45600
	buildings_max_level_factor=1.000
	state_category=rural
}
