
state={
	id=89
	name="STATE_89"

	history={
		victory_points = {
			11411 1 
		}
		owner = SOV
		buildings = {
			infrastructure = 5
			air_base = 3

		}
		add_core_of = SOV
		add_core_of = POL
		add_core_of = UKR

	}

	provinces={
		3743 6431 6460 6483 9425 11411 11550 
	}
	manpower=2180300
	buildings_max_level_factor=1.000
	state_category=town
}
