
state={
	id=96
	name="STATE_96"

	history={
		victory_points = {
			406 1 
		}
		owner = SOV
		buildings = {
			infrastructure = 4

		}
		add_core_of = POL
		add_core_of = SOV
		add_core_of = BLR

	}

	provinces={
		277 406 6340 9341 11391 
	}
	manpower=726000
	buildings_max_level_factor=1.000
	state_category=rural
}
