state={
	id=98
	name="STATE_98"
	manpower = 1412100
	
	state_category = rural
	history={
		victory_points = {
			3230 5
		}
		victory_points = {
			11385 1
		}
		victory_points = {
			9316 1
		}
		owner = POL
		buildings = {
			infrastructure = 6
		}
		add_core_of = POL
	}

	provinces={
		548 3230 6259 6321 6401 6567 9290 9316 11385 
	}
}
