effect = {
		GER = {
			set_variable = {
			var = schlact_favor
			value = 0
				}
			set_variable = {
			var = pro_polish
			value = 0
				}
			set_variable = {
			var = anti_polish
			value = 0
				}
			set_variable = {
			var = neutral_polish
			value = 0
				}
			set_variable = {
			var = anti_war_sentiment
			value = 0
				}
			set_variable = {
			var = pro_war_sentiment
			value = 0
				}
		}
		
	   }