﻿division_template = {
	name = "Morit Diviziin"			# Cavalry Division

	division_names_group = MON_CAV_01

	regiments = {
		cavalry = { x = 0 y = 0 }
		cavalry = { x = 0 y = 1 }
		cavalry = { x = 0 y = 2 }
	}
}

units = {
	##### Mongol Ardyn Armiin #####
	division = {
		#name = "1-r Morit Diviziin"
		division_name = {    # New syntax for compatibility with name lists
			is_name_ordered = yes
			name_order = 1
		}
		location = 9809
		division_template = "Morit Diviziin"
		start_experience_factor = 0.1
		start_equipment_factor = 0.5

	}
	division = {
		#name = "2-p Morit Diviziin"
		division_name = {    # New syntax for compatibility with name lists
			is_name_ordered = yes
			name_order = 2
		}
		location = 11858
		division_template = "Morit Diviziin"
		start_experience_factor = 0.1
		start_equipment_factor = 0.5
	}
}