﻿units = {

	######## NAVAL OOB ########
	fleet = {
		name = "Polska Flota Niszczycieli"
		naval_base = 9263 
		task_force = {				
			name = "Polska Flota Niszczycieli"
			location = 9263 # Gydina
			ship = { name = "ORP Gydina" definition = destroyer equipment = { destroyer_1 = { amount = 1 owner = POL } } }	
			ship = { name = "ORP Poznań" definition = destroyer equipment = { destroyer_1 = { amount = 1 owner = POL } } }	
			
		}		
		task_force = {
			name = "Dywizjon Okretów Podwodnych"
			location = 9263 # Gydina
			ship = { name = "ORP Rys" definition = submarine equipment = { submarine_1 = { amount = 1 owner = POL } } }					
			ship = { name = "ORP Wilk" definition = submarine equipment = { submarine_1 = { amount = 1 owner = POL } } }					
			ship = { name = "ORP Zbik" definition = submarine equipment = { submarine_1 = { amount = 1 owner = POL } } }			
		}
	}
}
