﻿##### Division Templates #####
division_template = {
	name = "División de Infantería" 		# Used for both regular infantry divisions and larger garrison divisions
	division_names_group = SPR_INF_01
	# Note: Spanish divisions were 2x brigades of 2x2 rgts each, + support
	regiments = {
		infantry = { x = 0 y = 0 }
		infantry = { x = 0 y = 1 }
		infantry = { x = 0 y = 2 }
		infantry = { x = 0 y = 3 }
		infantry = { x = 1 y = 0 }
		infantry = { x = 1 y = 1 }
		infantry = { x = 1 y = 2 }
		infantry = { x = 1 y = 3 }
	}
	support = {
		artillery = { x = 0 y = 0 }  # Spanish Arty Rgt/Bge had 2 Bn 105mm arty
		engineer = { x = 0 y = 1 }   # Eng Bn
	}
}
division_template = {
	name = "División de Caballería"  		# Only one Cavalry Division (3x bge of 2x2 Rgts)
	division_names_group = SPR_CAV_01

	regiments = {
		cavalry = { x = 0 y = 0 }
		cavalry = { x = 0 y = 1 }
		cavalry = { x = 0 y = 2 }
		cavalry = { x = 0 y = 3 }
		cavalry = { x = 1 y = 0 }
		cavalry = { x = 1 y = 1 }
		cavalry = { x = 1 y = 2 }
		cavalry = { x = 1 y = 3 }
		cavalry = { x = 2 y = 0 }
		cavalry = { x = 2 y = 1 }
		cavalry = { x = 2 y = 2 }
		cavalry = { x = 2 y = 3 }
	}
	support = {
		recon = { x = 0 y = 0 }      # Recon consisted of motorcycles and ACs
	}
}
division_template = {
	name = "Brigada Montaña"  		# Mountain Brigades were 2x2 Rgts + support
	division_names_group = SPR_MNT_01
	regiments = {
		mountaineers = { x = 0 y = 0 }	
		mountaineers = { x = 0 y = 1 }
		mountaineers = { x = 1 y = 0 }
		mountaineers = { x = 1 y = 1 }
	}
	support = {
		artillery = { x = 0 y = 0 }  # Spanish Arty Rgt/Bge had 2 Bn 105mm arty
	}
}
division_template = {
	name = "Brigada de Infantería" 		# Infantry Brigade - Used for smaller garrison units
	division_names_group = SPR_GAR_01

	regiments = {
		infantry = { x = 0 y = 0 }	
		infantry = { x = 0 y = 1 }	
		infantry = { x = 1 y = 0 }	
		infantry = { x = 1 y = 1 }	
	}
	support = {
		engineer = { x = 0 y = 0 }   # Eng Bn
	}
}

###### OOB ######
units = {
	#####LAND UNITS #####
	### MAINLAND UNITS ###
	division = { # "1a División de Infantería"		
		division_name = {
				is_name_ordered = yes
				name_order = 1
		}
		location = 3938  # Madrid
		division_template = "División de Infantería"
		start_experience_factor = 0.2
		start_equipment_factor = 0.8

	}					


	### Island Garrisons ###
	division = { # "Comandancia de Baleares"		
		division_name = {
				is_name_ordered = yes
				name_order = 1
		}
		location = 9793  #Mallorca
		division_template = "Brigada de Infantería"		# garrison division, lower equipment, experience
		force_equipment_variants = { infantry_equipment_0 = { owner = "SPR" } }
		start_experience_factor = 0.1
		start_equipment_factor = 0.5

	}			
	division = { # "Comandancia de Canarias"		
		division_name = {
				is_name_ordered = yes
				name_order = 2
		}
		location = 13071  # Canary Islands
		division_template = "Brigada de Infantería"		# garrison division, lower equipment, experience
		force_equipment_variants = { infantry_equipment_0 = { owner = "SPR" } }
		start_experience_factor = 0.1
		start_equipment_factor = 0.5

	}			


	### Ejército de África ###
	division = {			
		name = "Circunscripción Occidental"		
		location = 9945  #Ceuta
		division_template = "División de Infantería"		# garrison division, lower equipment, experience
		start_experience_factor = 0.1
		start_equipment_factor = 0.8

	}			
	division = {			
		name = "Circunscripción Oriental"		
		location = 12100  #Melilla
		division_template = "División de Infantería"		# garrison division, lower equipment, experience
		start_experience_factor = 0.1
		start_equipment_factor = 0.8

	}			
}

### Air Wings
air_wings = {
	# Arma de Aviación -- Madrid (Getafe)
	41 = { 
		# Grupo n.1 de Caza FARE 'Alas Rojas'
		fighter_equipment_0 = {
			owner = "SPR" 
			amount = 36
		}
	}
	# Arma de Aviación -- Sevilla (and Barcelona)
	169 = {
		# Grupo n.3 de Caza FARE 'Malraux'
		fighter_equipment_0 = {
			owner = "SPR" 
			amount = 24
		}
	}
	# Aeronáutica Naval -- Murcia
	168 = {
		nav_bomber_equipment_1 = {
			owner = "SPR" 
			amount = 27
		}
	}
}


instant_effect = {
	add_equipment_production = {
		equipment = {
			type = infantry_equipment_1
			creator = "SPR"
		}
		requested_factories = 2
		progress = 0.42
		efficiency = 100
	}
	add_equipment_production = {
		equipment = {
			type = support_equipment_1
			creator = "SPR"
		}
		requested_factories = 1
		progress = 0.24
		efficiency = 100
	}
	add_equipment_production = {
		equipment = {
			type = artillery_equipment_1
			creator = "SPR"
		}
		requested_factories = 1
		progress = 0.24
		efficiency = 100
	}
}